…
Results are derived views over recorded events.

``` r
ledgr_results(bt, what = "trades")
#> # A tibble: 24 x 9
#>    event_seq ts_utc     instrument_id side    qty price   fee realized_pnl action
#>        <int> <date>     <chr>         <chr> <dbl> <dbl> <dbl>        <dbl> <chr>
#>  1         1 2019-01-29 DEMO_01       BUY      10  91.9     0         0    OPEN
#>  2         2 2019-02-19 DEMO_02       BUY      10  68.7     0         0    OPEN
#>  3         3 2019-02-25 DEMO_02       SELL     10  67.5     0       -12.2  CLOSE
#>  4         4 2019-03-04 DEMO_02       BUY      10  68.0     0         0    OPEN
#>  5         5 2019-03-05 DEMO_02       SELL     10  65.3     0       -26.8  CLOSE
#>  6         6 2019-03-08 DEMO_02       BUY      10  68.9     0         0    OPEN
#>  7         7 2019-03-12 DEMO_02       SELL     10  67.1     0       -18.4  CLOSE
#>  8         8 2019-03-13 DEMO_02       BUY      10  67.4     0         0    OPEN
#>  9         9 2019-03-19 DEMO_02       SELL     10  67.5     0         1.26 CLOSE
#> 10        10 2019-03-20 DEMO_01       SELL     10 101.      0        96.1  CLOSE
#> # i 14 more rows
…
