…
run_id <- paste0("indicators-demo-", Sys.getpid())

bt <- exp |>
  ledgr_run(params = list(min_return = 0, qty = 10), run_id = run_id)

ledgr_results(bt, what = "fills")
#> # A tibble: 39 × 9
#>    event_seq ts_utc     instrument_id side    qty price   fee realized_pnl action
#>        <int> <date>     <chr>         <chr> <dbl> <dbl> <dbl>        <dbl> <chr>
#>  1         1 2019-01-23 DEMO_01       BUY      10  88.0     0         0    OPEN
#>  2         2 2019-01-30 DEMO_02       BUY      10  71.1     0         0    OPEN
#>  3         3 2019-02-01 DEMO_02       SELL     10  69.3     0       -17.9  CLOSE
#>  4         4 2019-02-06 DEMO_01       SELL     10  92.9     0        49.3  CLOSE
#>  5         5 2019-02-13 DEMO_01       BUY      10  93.9     0         0    OPEN
#>  6         6 2019-02-19 DEMO_02       BUY      10  68.7     0         0    OPEN
#>  7         7 2019-02-25 DEMO_02       SELL     10  67.5     0       -12.2  CLOSE
#>  8         8 2019-03-08 DEMO_02       BUY      10  68.9     0         0    OPEN
#>  9         9 2019-03-11 DEMO_01       SELL     10 106.      0       123.   CLOSE
#> 10        10 2019-03-11 DEMO_02       SELL     10  68.0     0        -9.18 CLOSE
#> # ℹ 29 more rows
…
