…
Do not expect a teaching strategy to be good. A weak or unattractive
result is still useful evidence: ledgr records failed ideas with the
same care as successful ones, which is part of not fooling yourself.

Inspecting trades shows the actions produced by the target decisions.

``` r
ledgr_results(bt_top_1, what = "trades")
#> # A tibble: 24 x 9
#>    event_seq ts_utc     instrument_id side    qty price   fee realized_pnl action
#>        <int> <date>     <chr>         <chr> <dbl> <dbl> <dbl>        <dbl> <chr>
#>  1         3 2019-01-14 DEMO_02       SELL     13  72.8     0       -22.5  CLOSE
#>  2         4 2019-01-18 DEMO_01       SELL     11  86.2     0       -19.0  CLOSE
#>  3         7 2019-01-21 DEMO_02       SELL     13  70.2     0       -31.5  CLOSE
#>  4         8 2019-01-25 DEMO_01       SELL      1  90.7     0         3.37 CLOSE
#>  5         9 2019-02-08 DEMO_01       SELL     10  92.6     0        52.8  CLOSE
#>  6        13 2019-02-13 DEMO_02       SELL     15  66.2     0       -14.0  CLOSE
#>  7        14 2019-02-20 DEMO_01       SELL     10  96.9     0        30.4  CLOSE
#>  8        17 2019-02-25 DEMO_02       SELL     14  67.5     0       -24.5  CLOSE
#>  9        18 2019-02-27 DEMO_01       SELL      1 100.      0         2.52 CLOSE
#> 10        19 2019-03-11 DEMO_01       SELL      9 106.      0        77.7  CLOSE
#> # i 14 more rows
```

The trade table only includes closed round trips. Small one-share rows
appear when integer sizing and price movement leave a tiny adjustment
after a previous target. Larger rows are the ordinary position exits.
`realized_pnl` is the profit or loss booked when that position closes.

If a run has zero trades, inspect fills before assuming nothing
happened:

``` r
ledgr_results(bt_top_1, what = "fills")
#> # A tibble: 50 x 9
#>    event_seq ts_utc     instrument_id side    qty price   fee realized_pnl action
#>        <int> <date>     <chr>         <chr> <dbl> <dbl> <dbl>        <dbl> <chr>
#>  1         1 2019-01-09 DEMO_02       BUY      13  74.6     0         0    OPEN
#>  2         2 2019-01-14 DEMO_01       BUY      11  87.9     0         0    OPEN
#>  3         3 2019-01-14 DEMO_02       SELL     13  72.8     0       -22.5  CLOSE
#>  4         4 2019-01-18 DEMO_01       SELL     11  86.2     0       -19.0  CLOSE
#>  5         5 2019-01-18 DEMO_02       BUY      13  72.6     0         0    OPEN
#>  6         6 2019-01-21 DEMO_01       BUY      11  87.4     0         0    OPEN
#>  7         7 2019-01-21 DEMO_02       SELL     13  70.2     0       -31.5  CLOSE
#>  8         8 2019-01-25 DEMO_01       SELL      1  90.7     0         3.37 CLOSE
#>  9         9 2019-02-08 DEMO_01       SELL     10  92.6     0        52.8  CLOSE
#> 10        10 2019-02-08 DEMO_02       BUY      14  67.2     0         0    OPEN
#> # i 40 more rows
```
…
